<?xml version="1.0" encoding="UTF-8" standalone="no"?><svg xmlns="http://www.w3.org/2000/svg" xmlns:xlink="http://www.w3.org/1999/xlink" contentScriptType="application/ecmascript" contentStyleType="text/css" height="765px" preserveAspectRatio="none" style="width:1065px;height:765px;background:#FFFFFF;" version="1.1" viewBox="0 0 1065 765" width="1065px" zoomAndPan="magnify"><defs><filter height="300%" id="fzvogcv3351w8" width="300%" x="-1" y="-1"><feGaussianBlur result="blurOut" stdDeviation="2.0"/><feColorMatrix in="blurOut" result="blurOut2" type="matrix" values="0 0 0 0 0 0 0 0 0 0 0 0 0 0 0 0 0 0 .4 0"/><feOffset dx="4.0" dy="4.0" in="blurOut2" result="blurOut3"/><feBlend in="SourceGraphic" in2="blurOut3" mode="normal"/></filter></defs><g><!--MD5=[4899ead58b536ff968fbcbdca857d192]
class Function--><rect codeLine="2" fill="#FEFECE" filter="url(#fzvogcv3351w8)" height="188.8516" id="Function" style="stroke:#A80036;stroke-width:1.5;" width="216" x="458" y="205"/><ellipse cx="534.75" cy="221" fill="#ADD1B2" rx="11" ry="11" style="stroke:#A80036;stroke-width:1.0;"/><path d="M537.7188,226.6406 Q537.1406,226.9375 536.5,227.0781 Q535.8594,227.2344 535.1563,227.2344 Q532.6563,227.2344 531.3281,225.5938 Q530.0156,223.9375 530.0156,220.8125 Q530.0156,217.6875 531.3281,216.0313 Q532.6563,214.375 535.1563,214.375 Q535.8594,214.375 536.5,214.5313 Q537.1563,214.6875 537.7188,214.9844 L537.7188,217.7031 Q537.0938,217.125 536.5,216.8594 Q535.9063,216.5781 535.2813,216.5781 Q533.9375,216.5781 533.25,217.6563 Q532.5625,218.7188 532.5625,220.8125 Q532.5625,222.9063 533.25,223.9844 Q533.9375,225.0469 535.2813,225.0469 Q535.9063,225.0469 536.5,224.7813 Q537.0938,224.5 537.7188,223.9219 L537.7188,226.6406 Z " fill="#000000"/><text fill="#000000" font-family="sans-serif" font-size="12" lengthAdjust="spacing" textLength="54" x="555.25" y="225.1543">Function</text><line style="stroke:#A80036;stroke-width:1.5;" x1="459" x2="673" y1="237" y2="237"/><polygon fill="none" points="469,243,473,247,469,251,465,247" style="stroke:#B38D22;stroke-width:1.0;"/><text fill="#000000" font-family="sans-serif" font-size="11" lengthAdjust="spacing" textLength="124" x="478" y="251.2104">function_name: string</text><line style="stroke:#A80036;stroke-width:1.5;" x1="459" x2="673" y1="257.8047" y2="257.8047"/><polygon fill="#FFFF44" points="469,263.8047,473,267.8047,469,271.8047,465,267.8047" style="stroke:#B38D22;stroke-width:1.0;"/><text fill="#000000" font-family="sans-serif" font-size="11" lengthAdjust="spacing" textLength="190" x="478" y="272.0151">_execute(ctx, args): SkiddoObject</text><polygon fill="#FFFF44" points="469,276.6094,473,280.6094,469,284.6094,465,280.6094" style="stroke:#B38D22;stroke-width:1.0;"/><text fill="#000000" font-family="sans-serif" font-size="11" lengthAdjust="spacing" textLength="139" x="478" y="284.8198">print(out: ostream): void</text><text fill="#000000" font-family="sans-serif" font-size="11" lengthAdjust="spacing" textLength="0" x="482" y="297.6245"/><ellipse cx="469" cy="307.2188" fill="#84BE84" rx="3" ry="3" style="stroke:#038048;stroke-width:1.0;"/><text fill="#000000" font-family="sans-serif" font-size="11" lengthAdjust="spacing" textLength="138" x="478" y="310.4292">Function(function_name)</text><ellipse cx="469" cy="320.0234" fill="#84BE84" rx="3" ry="3" style="stroke:#038048;stroke-width:1.0;"/><text fill="#000000" font-family="sans-serif" font-size="11" lengthAdjust="spacing" textLength="91" x="478" y="323.2339">get_type(): Type</text><ellipse cx="469" cy="332.8281" fill="#84BE84" rx="3" ry="3" style="stroke:#038048;stroke-width:1.0;"/><text fill="#000000" font-family="sans-serif" font-size="11" lengthAdjust="spacing" textLength="97" x="478" y="336.0386">get_id(): uintptr_t</text><ellipse cx="469" cy="345.6328" fill="#84BE84" rx="3" ry="3" style="stroke:#038048;stroke-width:1.0;"/><text fill="#000000" font-family="sans-serif" font-size="11" lengthAdjust="spacing" textLength="141" x="478" y="348.8433">to_object(): SkiddoObject</text><ellipse cx="469" cy="358.4375" fill="#84BE84" rx="3" ry="3" style="stroke:#038048;stroke-width:1.0;"/><text fill="#000000" font-family="sans-serif" font-size="11" lengthAdjust="spacing" textLength="82" x="478" y="361.6479">to_str(): string</text><text fill="#000000" font-family="sans-serif" font-size="11" lengthAdjust="spacing" textLength="0" x="482" y="374.4526"/><ellipse cx="469" cy="384.0469" fill="#84BE84" rx="3" ry="3" style="stroke:#038048;stroke-width:1.0;"/><text fill="#000000" font-family="sans-serif" font-size="11" lengthAdjust="spacing" textLength="184" x="478" y="387.2573">execute(ctx, args): SkiddoObject</text><!--MD5=[6edbbc2551a6f5513273cdf19c7c4946]
class SkiddoObject--><rect codeLine="16" fill="#FEFECE" filter="url(#fzvogcv3351w8)" height="137.6328" id="SkiddoObject" style="stroke:#A80036;stroke-width:1.5;" width="210" x="461" y="7"/><ellipse cx="520.75" cy="23" fill="#ADD1B2" rx="11" ry="11" style="stroke:#A80036;stroke-width:1.0;"/><path d="M523.7188,28.6406 Q523.1406,28.9375 522.5,29.0781 Q521.8594,29.2344 521.1563,29.2344 Q518.6563,29.2344 517.3281,27.5938 Q516.0156,25.9375 516.0156,22.8125 Q516.0156,19.6875 517.3281,18.0313 Q518.6563,16.375 521.1563,16.375 Q521.8594,16.375 522.5,16.5313 Q523.1563,16.6875 523.7188,16.9844 L523.7188,19.7031 Q523.0938,19.125 522.5,18.8594 Q521.9063,18.5781 521.2813,18.5781 Q519.9375,18.5781 519.25,19.6563 Q518.5625,20.7188 518.5625,22.8125 Q518.5625,24.9063 519.25,25.9844 Q519.9375,27.0469 521.2813,27.0469 Q521.9063,27.0469 522.5,26.7813 Q523.0938,26.5 523.7188,25.9219 L523.7188,28.6406 Z " fill="#000000"/><text fill="#000000" font-family="sans-serif" font-size="12" lengthAdjust="spacing" textLength="82" x="541.25" y="27.1543">SkiddoObject</text><line style="stroke:#A80036;stroke-width:1.5;" x1="462" x2="670" y1="39" y2="39"/><polygon fill="none" points="472,45,476,49,472,53,468,49" style="stroke:#B38D22;stroke-width:1.0;"/><text fill="#000000" font-family="sans-serif" font-size="11" lengthAdjust="spacing" textLength="77" x="481" y="53.2104">_ptr: Function</text><line style="stroke:#A80036;stroke-width:1.5;" x1="462" x2="670" y1="59.8047" y2="59.8047"/><ellipse cx="472" cy="70.8047" fill="#84BE84" rx="3" ry="3" style="stroke:#038048;stroke-width:1.0;"/><text fill="#000000" font-family="sans-serif" font-size="11" lengthAdjust="spacing" textLength="91" x="481" y="74.0151">get_type(): Type</text><ellipse cx="472" cy="83.6094" fill="#84BE84" rx="3" ry="3" style="stroke:#038048;stroke-width:1.0;"/><text fill="#000000" font-family="sans-serif" font-size="11" lengthAdjust="spacing" textLength="97" x="481" y="86.8198">get_id(): uintptr_t</text><ellipse cx="472" cy="96.4141" fill="#84BE84" rx="3" ry="3" style="stroke:#038048;stroke-width:1.0;"/><text fill="#000000" font-family="sans-serif" font-size="11" lengthAdjust="spacing" textLength="141" x="481" y="99.6245">to_object(): SkiddoObject</text><ellipse cx="472" cy="109.2188" fill="#84BE84" rx="3" ry="3" style="stroke:#038048;stroke-width:1.0;"/><text fill="#000000" font-family="sans-serif" font-size="11" lengthAdjust="spacing" textLength="82" x="481" y="112.4292">to_str(): string</text><text fill="#000000" font-family="sans-serif" font-size="11" lengthAdjust="spacing" textLength="0" x="485" y="125.2339"/><ellipse cx="472" cy="134.8281" fill="#84BE84" rx="3" ry="3" style="stroke:#038048;stroke-width:1.0;"/><text fill="#000000" font-family="sans-serif" font-size="11" lengthAdjust="spacing" textLength="184" x="481" y="138.0386">execute(ctx, args): SkiddoObject</text><!--MD5=[f18b0f967872e82ff276115ca1b4c569]
class Atom--><rect codeLine="27" fill="#FEFECE" filter="url(#fzvogcv3351w8)" height="124.8281" id="Atom" style="stroke:#A80036;stroke-width:1.5;" width="216" x="82" y="454"/><ellipse cx="169.75" cy="470" fill="#ADD1B2" rx="11" ry="11" style="stroke:#A80036;stroke-width:1.0;"/><path d="M172.7188,475.6406 Q172.1406,475.9375 171.5,476.0781 Q170.8594,476.2344 170.1563,476.2344 Q167.6563,476.2344 166.3281,474.5938 Q165.0156,472.9375 165.0156,469.8125 Q165.0156,466.6875 166.3281,465.0313 Q167.6563,463.375 170.1563,463.375 Q170.8594,463.375 171.5,463.5313 Q172.1563,463.6875 172.7188,463.9844 L172.7188,466.7031 Q172.0938,466.125 171.5,465.8594 Q170.9063,465.5781 170.2813,465.5781 Q168.9375,465.5781 168.25,466.6563 Q167.5625,467.7188 167.5625,469.8125 Q167.5625,471.9063 168.25,472.9844 Q168.9375,474.0469 170.2813,474.0469 Q170.9063,474.0469 171.5,473.7813 Q172.0938,473.5 172.7188,472.9219 L172.7188,475.6406 Z " fill="#000000"/><text fill="#000000" font-family="sans-serif" font-size="12" lengthAdjust="spacing" textLength="32" x="190.25" y="474.1543">Atom</text><line style="stroke:#A80036;stroke-width:1.5;" x1="83" x2="297" y1="486" y2="486"/><ellipse cx="93" cy="497" rx="3" ry="3" style="stroke:#038048;stroke-width:1.0;fill:none;"/><text fill="#000000" font-family="sans-serif" font-size="11" lengthAdjust="spacing" textLength="73" x="102" y="500.2104">name: string</text><line style="stroke:#A80036;stroke-width:1.5;" x1="83" x2="297" y1="506.8047" y2="506.8047"/><polygon fill="#FFFF44" points="93,512.8047,97,516.8047,93,520.8047,89,516.8047" style="stroke:#B38D22;stroke-width:1.0;"/><text fill="#000000" font-family="sans-serif" font-size="11" lengthAdjust="spacing" textLength="190" x="102" y="521.0151">_execute(ctx, args): SkiddoObject</text><polygon fill="#FFFF44" points="93,525.6094,97,529.6094,93,533.6094,89,529.6094" style="stroke:#B38D22;stroke-width:1.0;"/><text fill="#000000" font-family="sans-serif" font-size="11" lengthAdjust="spacing" textLength="139" x="102" y="533.8198">print(out: ostream): void</text><text fill="#000000" font-family="sans-serif" font-size="11" lengthAdjust="spacing" textLength="0" x="106" y="546.6245"/><ellipse cx="93" cy="556.2188" fill="#84BE84" rx="3" ry="3" style="stroke:#038048;stroke-width:1.0;"/><text fill="#000000" font-family="sans-serif" font-size="11" lengthAdjust="spacing" textLength="110" x="102" y="559.4292">Atom(name: string)</text><ellipse cx="93" cy="569.0234" fill="#84BE84" rx="3" ry="3" style="stroke:#038048;stroke-width:1.0;"/><text fill="#000000" font-family="sans-serif" font-size="11" lengthAdjust="spacing" textLength="91" x="102" y="572.2339">get_type(): Type</text><!--MD5=[27bfdb9e128171e0e365013b6b91e809]
class Literal--><rect codeLine="37" fill="#FEFECE" filter="url(#fzvogcv3351w8)" height="124.8281" id="Literal" style="stroke:#A80036;stroke-width:1.5;" width="216" x="333" y="454"/><ellipse cx="417.75" cy="470" fill="#ADD1B2" rx="11" ry="11" style="stroke:#A80036;stroke-width:1.0;"/><path d="M420.7188,475.6406 Q420.1406,475.9375 419.5,476.0781 Q418.8594,476.2344 418.1563,476.2344 Q415.6563,476.2344 414.3281,474.5938 Q413.0156,472.9375 413.0156,469.8125 Q413.0156,466.6875 414.3281,465.0313 Q415.6563,463.375 418.1563,463.375 Q418.8594,463.375 419.5,463.5313 Q420.1563,463.6875 420.7188,463.9844 L420.7188,466.7031 Q420.0938,466.125 419.5,465.8594 Q418.9063,465.5781 418.2813,465.5781 Q416.9375,465.5781 416.25,466.6563 Q415.5625,467.7188 415.5625,469.8125 Q415.5625,471.9063 416.25,472.9844 Q416.9375,474.0469 418.2813,474.0469 Q418.9063,474.0469 419.5,473.7813 Q420.0938,473.5 420.7188,472.9219 L420.7188,475.6406 Z " fill="#000000"/><text fill="#000000" font-family="sans-serif" font-size="12" lengthAdjust="spacing" textLength="38" x="438.25" y="474.1543">Literal</text><line style="stroke:#A80036;stroke-width:1.5;" x1="334" x2="548" y1="486" y2="486"/><ellipse cx="344" cy="497" rx="3" ry="3" style="stroke:#038048;stroke-width:1.0;fill:none;"/><text fill="#000000" font-family="sans-serif" font-size="11" lengthAdjust="spacing" textLength="73" x="353" y="500.2104">name: string</text><line style="stroke:#A80036;stroke-width:1.5;" x1="334" x2="548" y1="506.8047" y2="506.8047"/><polygon fill="#FFFF44" points="344,512.8047,348,516.8047,344,520.8047,340,516.8047" style="stroke:#B38D22;stroke-width:1.0;"/><text fill="#000000" font-family="sans-serif" font-size="11" lengthAdjust="spacing" textLength="190" x="353" y="521.0151">_execute(ctx, args): SkiddoObject</text><text fill="#000000" font-family="sans-serif" font-size="11" lengthAdjust="spacing" textLength="0" x="357" y="533.8198"/><ellipse cx="344" cy="543.4141" fill="#84BE84" rx="3" ry="3" style="stroke:#038048;stroke-width:1.0;"/><text fill="#000000" font-family="sans-serif" font-size="11" lengthAdjust="spacing" textLength="43" x="353" y="546.6245">Literal()</text><ellipse cx="344" cy="556.2188" fill="#84BE84" rx="3" ry="3" style="stroke:#038048;stroke-width:1.0;"/><text fill="#000000" font-family="sans-serif" font-size="11" lengthAdjust="spacing" textLength="91" x="353" y="559.4292">get_type(): Type</text><ellipse cx="344" cy="569.0234" fill="#84BE84" rx="3" ry="3" style="stroke:#038048;stroke-width:1.0;"/><text fill="#000000" font-family="sans-serif" font-size="11" lengthAdjust="spacing" textLength="164" x="353" y="572.2339">get_literal_type(): LiteralType</text><!--MD5=[3d4177ac58b4411586d067f34e84928f]
class List--><rect codeLine="47" fill="#FEFECE" filter="url(#fzvogcv3351w8)" height="124.8281" id="List" style="stroke:#A80036;stroke-width:1.5;" width="216" x="584" y="454"/><ellipse cx="677.25" cy="470" fill="#ADD1B2" rx="11" ry="11" style="stroke:#A80036;stroke-width:1.0;"/><path d="M680.2188,475.6406 Q679.6406,475.9375 679,476.0781 Q678.3594,476.2344 677.6563,476.2344 Q675.1563,476.2344 673.8281,474.5938 Q672.5156,472.9375 672.5156,469.8125 Q672.5156,466.6875 673.8281,465.0313 Q675.1563,463.375 677.6563,463.375 Q678.3594,463.375 679,463.5313 Q679.6563,463.6875 680.2188,463.9844 L680.2188,466.7031 Q679.5938,466.125 679,465.8594 Q678.4063,465.5781 677.7813,465.5781 Q676.4375,465.5781 675.75,466.6563 Q675.0625,467.7188 675.0625,469.8125 Q675.0625,471.9063 675.75,472.9844 Q676.4375,474.0469 677.7813,474.0469 Q678.4063,474.0469 679,473.7813 Q679.5938,473.5 680.2188,472.9219 L680.2188,475.6406 Z " fill="#000000"/><text fill="#000000" font-family="sans-serif" font-size="12" lengthAdjust="spacing" textLength="21" x="697.75" y="474.1543">List</text><line style="stroke:#A80036;stroke-width:1.5;" x1="585" x2="799" y1="486" y2="486"/><ellipse cx="595" cy="497" rx="3" ry="3" style="stroke:#038048;stroke-width:1.0;fill:none;"/><text fill="#000000" font-family="sans-serif" font-size="11" lengthAdjust="spacing" textLength="167" x="604" y="500.2104">items: vector&lt;SkiddoObject&gt;</text><line style="stroke:#A80036;stroke-width:1.5;" x1="585" x2="799" y1="506.8047" y2="506.8047"/><polygon fill="#FFFF44" points="595,512.8047,599,516.8047,595,520.8047,591,516.8047" style="stroke:#B38D22;stroke-width:1.0;"/><text fill="#000000" font-family="sans-serif" font-size="11" lengthAdjust="spacing" textLength="190" x="604" y="521.0151">_execute(ctx, args): SkiddoObject</text><polygon fill="#FFFF44" points="595,525.6094,599,529.6094,595,533.6094,591,529.6094" style="stroke:#B38D22;stroke-width:1.0;"/><text fill="#000000" font-family="sans-serif" font-size="11" lengthAdjust="spacing" textLength="139" x="604" y="533.8198">print(out: ostream): void</text><text fill="#000000" font-family="sans-serif" font-size="11" lengthAdjust="spacing" textLength="0" x="608" y="546.6245"/><ellipse cx="595" cy="556.2188" fill="#84BE84" rx="3" ry="3" style="stroke:#038048;stroke-width:1.0;"/><text fill="#000000" font-family="sans-serif" font-size="11" lengthAdjust="spacing" textLength="101" x="604" y="559.4292">List(name: string)</text><ellipse cx="595" cy="569.0234" fill="#84BE84" rx="3" ry="3" style="stroke:#038048;stroke-width:1.0;"/><text fill="#000000" font-family="sans-serif" font-size="11" lengthAdjust="spacing" textLength="91" x="604" y="572.2339">get_type(): Type</text><!--MD5=[19db92a680528e4f3f642ddf82f32312]
class Quote--><rect codeLine="57" fill="#FEFECE" filter="url(#fzvogcv3351w8)" height="124.8281" id="Quote" style="stroke:#A80036;stroke-width:1.5;" width="216" x="835" y="454"/><ellipse cx="919.75" cy="470" fill="#ADD1B2" rx="11" ry="11" style="stroke:#A80036;stroke-width:1.0;"/><path d="M922.7188,475.6406 Q922.1406,475.9375 921.5,476.0781 Q920.8594,476.2344 920.1563,476.2344 Q917.6563,476.2344 916.3281,474.5938 Q915.0156,472.9375 915.0156,469.8125 Q915.0156,466.6875 916.3281,465.0313 Q917.6563,463.375 920.1563,463.375 Q920.8594,463.375 921.5,463.5313 Q922.1563,463.6875 922.7188,463.9844 L922.7188,466.7031 Q922.0938,466.125 921.5,465.8594 Q920.9063,465.5781 920.2813,465.5781 Q918.9375,465.5781 918.25,466.6563 Q917.5625,467.7188 917.5625,469.8125 Q917.5625,471.9063 918.25,472.9844 Q918.9375,474.0469 920.2813,474.0469 Q920.9063,474.0469 921.5,473.7813 Q922.0938,473.5 922.7188,472.9219 L922.7188,475.6406 Z " fill="#000000"/><text fill="#000000" font-family="sans-serif" font-size="12" lengthAdjust="spacing" textLength="38" x="940.25" y="474.1543">Quote</text><line style="stroke:#A80036;stroke-width:1.5;" x1="836" x2="1050" y1="486" y2="486"/><ellipse cx="846" cy="497" rx="3" ry="3" style="stroke:#038048;stroke-width:1.0;fill:none;"/><text fill="#000000" font-family="sans-serif" font-size="11" lengthAdjust="spacing" textLength="107" x="855" y="500.2104">item: SkiddoObject</text><line style="stroke:#A80036;stroke-width:1.5;" x1="836" x2="1050" y1="506.8047" y2="506.8047"/><polygon fill="#FFFF44" points="846,512.8047,850,516.8047,846,520.8047,842,516.8047" style="stroke:#B38D22;stroke-width:1.0;"/><text fill="#000000" font-family="sans-serif" font-size="11" lengthAdjust="spacing" textLength="190" x="855" y="521.0151">_execute(ctx, args): SkiddoObject</text><polygon fill="#FFFF44" points="846,525.6094,850,529.6094,846,533.6094,842,529.6094" style="stroke:#B38D22;stroke-width:1.0;"/><text fill="#000000" font-family="sans-serif" font-size="11" lengthAdjust="spacing" textLength="139" x="855" y="533.8198">print(out: ostream): void</text><text fill="#000000" font-family="sans-serif" font-size="11" lengthAdjust="spacing" textLength="0" x="859" y="546.6245"/><ellipse cx="846" cy="556.2188" fill="#84BE84" rx="3" ry="3" style="stroke:#038048;stroke-width:1.0;"/><text fill="#000000" font-family="sans-serif" font-size="11" lengthAdjust="spacing" textLength="115" x="855" y="559.4292">Quote(name: string)</text><ellipse cx="846" cy="569.0234" fill="#84BE84" rx="3" ry="3" style="stroke:#038048;stroke-width:1.0;"/><text fill="#000000" font-family="sans-serif" font-size="11" lengthAdjust="spacing" textLength="91" x="855" y="572.2339">get_type(): Type</text><!--MD5=[1465b2a1d7efec474357982411dcf619]
class LiteralNull--><rect codeLine="67" fill="#FEFECE" filter="url(#fzvogcv3351w8)" height="86.4141" id="LiteralNull" style="stroke:#A80036;stroke-width:1.5;" width="190" x="9" y="652"/><ellipse cx="69.25" cy="668" fill="#ADD1B2" rx="11" ry="11" style="stroke:#A80036;stroke-width:1.0;"/><path d="M72.2188,673.6406 Q71.6406,673.9375 71,674.0781 Q70.3594,674.2344 69.6563,674.2344 Q67.1563,674.2344 65.8281,672.5938 Q64.5156,670.9375 64.5156,667.8125 Q64.5156,664.6875 65.8281,663.0313 Q67.1563,661.375 69.6563,661.375 Q70.3594,661.375 71,661.5313 Q71.6563,661.6875 72.2188,661.9844 L72.2188,664.7031 Q71.5938,664.125 71,663.8594 Q70.4063,663.5781 69.7813,663.5781 Q68.4375,663.5781 67.75,664.6563 Q67.0625,665.7188 67.0625,667.8125 Q67.0625,669.9063 67.75,670.9844 Q68.4375,672.0469 69.7813,672.0469 Q70.4063,672.0469 71,671.7813 Q71.5938,671.5 72.2188,670.9219 L72.2188,673.6406 Z " fill="#000000"/><text fill="#000000" font-family="sans-serif" font-size="12" lengthAdjust="spacing" textLength="61" x="89.75" y="672.1543">LiteralNull</text><line style="stroke:#A80036;stroke-width:1.5;" x1="10" x2="198" y1="684" y2="684"/><line style="stroke:#A80036;stroke-width:1.5;" x1="10" x2="198" y1="692" y2="692"/><polygon fill="#FFFF44" points="20,698,24,702,20,706,16,702" style="stroke:#B38D22;stroke-width:1.0;"/><text fill="#000000" font-family="sans-serif" font-size="11" lengthAdjust="spacing" textLength="139" x="29" y="706.2104">print(out: ostream): void</text><text fill="#000000" font-family="sans-serif" font-size="11" lengthAdjust="spacing" textLength="0" x="33" y="719.0151"/><ellipse cx="20" cy="728.6094" fill="#84BE84" rx="3" ry="3" style="stroke:#038048;stroke-width:1.0;"/><text fill="#000000" font-family="sans-serif" font-size="11" lengthAdjust="spacing" textLength="164" x="29" y="731.8198">get_literal_type(): LiteralType</text><!--MD5=[3baf3b4a3f75c45dc6c8d671f0bd4699]
class LiteralBool--><rect codeLine="73" fill="#FEFECE" filter="url(#fzvogcv3351w8)" height="112.0234" id="LiteralBool" style="stroke:#A80036;stroke-width:1.5;" width="190" x="234" y="639"/><ellipse cx="292.25" cy="655" fill="#ADD1B2" rx="11" ry="11" style="stroke:#A80036;stroke-width:1.0;"/><path d="M295.2188,660.6406 Q294.6406,660.9375 294,661.0781 Q293.3594,661.2344 292.6563,661.2344 Q290.1563,661.2344 288.8281,659.5938 Q287.5156,657.9375 287.5156,654.8125 Q287.5156,651.6875 288.8281,650.0313 Q290.1563,648.375 292.6563,648.375 Q293.3594,648.375 294,648.5313 Q294.6563,648.6875 295.2188,648.9844 L295.2188,651.7031 Q294.5938,651.125 294,650.8594 Q293.4063,650.5781 292.7813,650.5781 Q291.4375,650.5781 290.75,651.6563 Q290.0625,652.7188 290.0625,654.8125 Q290.0625,656.9063 290.75,657.9844 Q291.4375,659.0469 292.7813,659.0469 Q293.4063,659.0469 294,658.7813 Q294.5938,658.5 295.2188,657.9219 L295.2188,660.6406 Z " fill="#000000"/><text fill="#000000" font-family="sans-serif" font-size="12" lengthAdjust="spacing" textLength="65" x="312.75" y="659.1543">LiteralBool</text><line style="stroke:#A80036;stroke-width:1.5;" x1="235" x2="423" y1="671" y2="671"/><ellipse cx="245" cy="682" rx="3" ry="3" style="stroke:#038048;stroke-width:1.0;fill:none;"/><text fill="#000000" font-family="sans-serif" font-size="11" lengthAdjust="spacing" textLength="62" x="254" y="685.2104">value: bool</text><line style="stroke:#A80036;stroke-width:1.5;" x1="235" x2="423" y1="691.8047" y2="691.8047"/><polygon fill="#FFFF44" points="245,697.8047,249,701.8047,245,705.8047,241,701.8047" style="stroke:#B38D22;stroke-width:1.0;"/><text fill="#000000" font-family="sans-serif" font-size="11" lengthAdjust="spacing" textLength="139" x="254" y="706.0151">print(out: ostream): void</text><text fill="#000000" font-family="sans-serif" font-size="11" lengthAdjust="spacing" textLength="0" x="258" y="718.8198"/><ellipse cx="245" cy="728.4141" fill="#84BE84" rx="3" ry="3" style="stroke:#038048;stroke-width:1.0;"/><text fill="#000000" font-family="sans-serif" font-size="11" lengthAdjust="spacing" textLength="130" x="254" y="731.6245">LiteralBool(value: bool)</text><ellipse cx="245" cy="741.2188" fill="#84BE84" rx="3" ry="3" style="stroke:#038048;stroke-width:1.0;"/><text fill="#000000" font-family="sans-serif" font-size="11" lengthAdjust="spacing" textLength="164" x="254" y="744.4292">get_literal_type(): LiteralType</text><!--MD5=[bcf72cdb7bd84a989ed40898fb36cc21]
class LiteralInt--><rect codeLine="82" fill="#FEFECE" filter="url(#fzvogcv3351w8)" height="112.0234" id="LiteralInt" style="stroke:#A80036;stroke-width:1.5;" width="190" x="459" y="639"/><ellipse cx="522.75" cy="655" fill="#ADD1B2" rx="11" ry="11" style="stroke:#A80036;stroke-width:1.0;"/><path d="M525.7188,660.6406 Q525.1406,660.9375 524.5,661.0781 Q523.8594,661.2344 523.1563,661.2344 Q520.6563,661.2344 519.3281,659.5938 Q518.0156,657.9375 518.0156,654.8125 Q518.0156,651.6875 519.3281,650.0313 Q520.6563,648.375 523.1563,648.375 Q523.8594,648.375 524.5,648.5313 Q525.1563,648.6875 525.7188,648.9844 L525.7188,651.7031 Q525.0938,651.125 524.5,650.8594 Q523.9063,650.5781 523.2813,650.5781 Q521.9375,650.5781 521.25,651.6563 Q520.5625,652.7188 520.5625,654.8125 Q520.5625,656.9063 521.25,657.9844 Q521.9375,659.0469 523.2813,659.0469 Q523.9063,659.0469 524.5,658.7813 Q525.0938,658.5 525.7188,657.9219 L525.7188,660.6406 Z " fill="#000000"/><text fill="#000000" font-family="sans-serif" font-size="12" lengthAdjust="spacing" textLength="54" x="543.25" y="659.1543">LiteralInt</text><line style="stroke:#A80036;stroke-width:1.5;" x1="460" x2="648" y1="671" y2="671"/><ellipse cx="470" cy="682" rx="3" ry="3" style="stroke:#038048;stroke-width:1.0;fill:none;"/><text fill="#000000" font-family="sans-serif" font-size="11" lengthAdjust="spacing" textLength="52" x="479" y="685.2104">value: int</text><line style="stroke:#A80036;stroke-width:1.5;" x1="460" x2="648" y1="691.8047" y2="691.8047"/><polygon fill="#FFFF44" points="470,697.8047,474,701.8047,470,705.8047,466,701.8047" style="stroke:#B38D22;stroke-width:1.0;"/><text fill="#000000" font-family="sans-serif" font-size="11" lengthAdjust="spacing" textLength="139" x="479" y="706.0151">print(out: ostream): void</text><text fill="#000000" font-family="sans-serif" font-size="11" lengthAdjust="spacing" textLength="0" x="483" y="718.8198"/><ellipse cx="470" cy="728.4141" fill="#84BE84" rx="3" ry="3" style="stroke:#038048;stroke-width:1.0;"/><text fill="#000000" font-family="sans-serif" font-size="11" lengthAdjust="spacing" textLength="109" x="479" y="731.6245">LiteralInt(value: int)</text><ellipse cx="470" cy="741.2188" fill="#84BE84" rx="3" ry="3" style="stroke:#038048;stroke-width:1.0;"/><text fill="#000000" font-family="sans-serif" font-size="11" lengthAdjust="spacing" textLength="164" x="479" y="744.4292">get_literal_type(): LiteralType</text><!--MD5=[7f42a667f5b00232285d0052daf7514f]
class LiteralFloat--><rect codeLine="91" fill="#FEFECE" filter="url(#fzvogcv3351w8)" height="112.0234" id="LiteralFloat" style="stroke:#A80036;stroke-width:1.5;" width="190" x="684" y="639"/><ellipse cx="740.25" cy="655" fill="#ADD1B2" rx="11" ry="11" style="stroke:#A80036;stroke-width:1.0;"/><path d="M743.2188,660.6406 Q742.6406,660.9375 742,661.0781 Q741.3594,661.2344 740.6563,661.2344 Q738.1563,661.2344 736.8281,659.5938 Q735.5156,657.9375 735.5156,654.8125 Q735.5156,651.6875 736.8281,650.0313 Q738.1563,648.375 740.6563,648.375 Q741.3594,648.375 742,648.5313 Q742.6563,648.6875 743.2188,648.9844 L743.2188,651.7031 Q742.5938,651.125 742,650.8594 Q741.4063,650.5781 740.7813,650.5781 Q739.4375,650.5781 738.75,651.6563 Q738.0625,652.7188 738.0625,654.8125 Q738.0625,656.9063 738.75,657.9844 Q739.4375,659.0469 740.7813,659.0469 Q741.4063,659.0469 742,658.7813 Q742.5938,658.5 743.2188,657.9219 L743.2188,660.6406 Z " fill="#000000"/><text fill="#000000" font-family="sans-serif" font-size="12" lengthAdjust="spacing" textLength="69" x="760.75" y="659.1543">LiteralFloat</text><line style="stroke:#A80036;stroke-width:1.5;" x1="685" x2="873" y1="671" y2="671"/><ellipse cx="695" cy="682" rx="3" ry="3" style="stroke:#038048;stroke-width:1.0;fill:none;"/><text fill="#000000" font-family="sans-serif" font-size="11" lengthAdjust="spacing" textLength="76" x="704" y="685.2104">value: double</text><line style="stroke:#A80036;stroke-width:1.5;" x1="685" x2="873" y1="691.8047" y2="691.8047"/><polygon fill="#FFFF44" points="695,697.8047,699,701.8047,695,705.8047,691,701.8047" style="stroke:#B38D22;stroke-width:1.0;"/><text fill="#000000" font-family="sans-serif" font-size="11" lengthAdjust="spacing" textLength="139" x="704" y="706.0151">print(out: ostream): void</text><text fill="#000000" font-family="sans-serif" font-size="11" lengthAdjust="spacing" textLength="0" x="708" y="718.8198"/><ellipse cx="695" cy="728.4141" fill="#84BE84" rx="3" ry="3" style="stroke:#038048;stroke-width:1.0;"/><text fill="#000000" font-family="sans-serif" font-size="11" lengthAdjust="spacing" textLength="146" x="704" y="731.6245">LiteralFloat(value: double)</text><ellipse cx="695" cy="741.2188" fill="#84BE84" rx="3" ry="3" style="stroke:#038048;stroke-width:1.0;"/><text fill="#000000" font-family="sans-serif" font-size="11" lengthAdjust="spacing" textLength="164" x="704" y="744.4292">get_literal_type(): LiteralType</text><!--MD5=[6a2ec68182a3d4b0b20af41ad951822e]
reverse link SkiddoObject to Function--><path codeLine="100" d="M566,158.32 C566,173.44 566,189.35 566,204.8 " fill="none" id="SkiddoObject-backto-Function" style="stroke:#A80036;stroke-width:1.0;"/><polygon fill="#A80036" points="566,145.26,562,151.26,566,157.26,570,151.26,566,145.26" style="stroke:#A80036;stroke-width:1.0;"/><!--MD5=[07dfc51ffad844a2c69c34b3a356a092]
reverse link Function to Atom--><path codeLine="101" d="M440.35,372.35 C394.16,398.76 342.3,428.41 297.81,453.85 " fill="none" id="Function-backto-Atom" style="stroke:#A80036;stroke-width:1.0;"/><polygon fill="none" points="436.91,366.25,457.75,362.4,443.86,378.4,436.91,366.25" style="stroke:#A80036;stroke-width:1.0;"/><!--MD5=[a0cd428f7c274b08ebe80a396a9a5512]
reverse link Function to Literal--><path codeLine="102" d="M501.27,411.84 C492.84,426.34 484.46,440.74 476.76,454 " fill="none" id="Function-backto-Literal" style="stroke:#A80036;stroke-width:1.0;"/><polygon fill="none" points="495.43,407.95,511.54,394.18,507.54,414.99,495.43,407.95" style="stroke:#A80036;stroke-width:1.0;"/><!--MD5=[29691beac8ce8448ea12935bb44c9c42]
reverse link Function to List--><path codeLine="103" d="M631.25,411.84 C639.75,426.34 648.19,440.74 655.96,454 " fill="none" id="Function-backto-List" style="stroke:#A80036;stroke-width:1.0;"/><polygon fill="none" points="624.97,414.97,620.9,394.18,637.05,407.89,624.97,414.97" style="stroke:#A80036;stroke-width:1.0;"/><!--MD5=[fc76d442606a65c48a238811e0a43156]
reverse link Function to Quote--><path codeLine="104" d="M691.53,372.09 C737.97,398.58 790.19,428.35 834.95,453.88 " fill="none" id="Function-backto-Quote" style="stroke:#A80036;stroke-width:1.0;"/><polygon fill="none" points="687.94,378.1,674.03,362.11,694.87,365.94,687.94,378.1" style="stroke:#A80036;stroke-width:1.0;"/><!--MD5=[7a8c9f94ed05c4a262553a1da81c5608]
reverse link Literal to LiteralNull--><path codeLine="106" d="M315.16,583.41 C271.4,606.33 223.52,631.4 184.44,651.87 " fill="none" id="Literal-backto-LiteralNull" style="stroke:#A80036;stroke-width:1.0;"/><polygon fill="none" points="312.02,577.15,332.98,574.07,318.51,589.55,312.02,577.15" style="stroke:#A80036;stroke-width:1.0;"/><!--MD5=[7fffe7af8419256b287e5e660dd9b980]
reverse link Literal to LiteralBool--><path codeLine="107" d="M390.93,596.41 C381.85,610.71 372.56,625.35 364.04,638.79 " fill="none" id="Literal-backto-LiteralBool" style="stroke:#A80036;stroke-width:1.0;"/><polygon fill="none" points="385.2,592.37,401.83,579.23,397.02,599.87,385.2,592.37" style="stroke:#A80036;stroke-width:1.0;"/><!--MD5=[639ae98dcf63b65ff4b034566a48ad37]
reverse link Literal to LiteralInt--><path codeLine="108" d="M491.52,596.41 C500.68,610.71 510.05,625.35 518.65,638.79 " fill="none" id="Literal-backto-LiteralInt" style="stroke:#A80036;stroke-width:1.0;"/><polygon fill="none" points="485.41,599.85,480.52,579.23,497.2,592.3,485.41,599.85" style="stroke:#A80036;stroke-width:1.0;"/><!--MD5=[34d87a22e6412c67e71e9dd45688cddc]
reverse link Literal to LiteralFloat--><path codeLine="109" d="M567.13,583.36 C605.76,603.54 647.6,625.38 683.81,644.29 " fill="none" id="Literal-backto-LiteralFloat" style="stroke:#A80036;stroke-width:1.0;"/><polygon fill="none" points="563.83,589.54,549.34,574.07,570.31,577.13,563.83,589.54" style="stroke:#A80036;stroke-width:1.0;"/><!--MD5=[2a7d6df4dbcba9eff588dd709fd1dec6]
@startuml backend

class "Function" {
  #function_name: string
  #_execute(ctx, args): SkiddoObject
  #print(out: ostream): void

  +Function(function_name)
  +get_type(): Type
  +get_id(): uintptr_t
  +to_object(): SkiddoObject
  +to_str(): string

  +execute(ctx, args): SkiddoObject
}

class "SkiddoObject" {
  #_ptr: Function

  +get_type(): Type
  +get_id(): uintptr_t
  +to_object(): SkiddoObject
  +to_str(): string

  +execute(ctx, args): SkiddoObject
}

class "Atom" {
  +name: string

  #_execute(ctx, args): SkiddoObject
  #print(out: ostream): void

  +Atom(name: string)
  +get_type(): Type
}

class "Literal" {
  +name: string

  #_execute(ctx, args): SkiddoObject

  +Literal()
  +get_type(): Type
  +get_literal_type(): LiteralType
}

class "List" {
  +items: vector<SkiddoObject>

  #_execute(ctx, args): SkiddoObject
  #print(out: ostream): void

  +List(name: string)
  +get_type(): Type
}

class "Quote" {
  +item: SkiddoObject

  #_execute(ctx, args): SkiddoObject
  #print(out: ostream): void

  +Quote(name: string)
  +get_type(): Type
}

class "LiteralNull" {
  #print(out: ostream): void

  +get_literal_type(): LiteralType
}

class "LiteralBool" {
  +value: bool

  #print(out: ostream): void

  +LiteralBool(value: bool)
  +get_literal_type(): LiteralType
}

class "LiteralInt" {
  +value: int

  #print(out: ostream): void

  +LiteralInt(value: int)
  +get_literal_type(): LiteralType
}

class "LiteralFloat" {
  +value: double

  #print(out: ostream): void

  +LiteralFloat(value: double)
  +get_literal_type(): LiteralType
}

"SkiddoObject" *- - "Function"
"Function" <|- - "Atom"
"Function" <|- - "Literal"
"Function" <|- - "List"
"Function" <|- - "Quote"

"Literal" <|- - "LiteralNull"
"Literal" <|- - "LiteralBool"
"Literal" <|- - "LiteralInt"
"Literal" <|- - "LiteralFloat"

@enduml

PlantUML version 1.2022.0(Tue Jan 11 16:16:42 GMT 2022)
(GPL source distribution)
Java Runtime: Java(TM) SE Runtime Environment
JVM: Java HotSpot(TM) 64-Bit Server VM
Default Encoding: UTF-8
Language: en
Country: US
--></g></svg>